/* XPM */
static char *noname[] = {
/* width height ncolors chars_per_pixel */
"48 48 63 1",
/* colors */
"  c #000000",
". c #4E4E5D",
"X c #007B41",
"o c #403F45",
"O c #07E41C",
"+ c #020408",
"@ c #000006",
"# c #665C6A",
"$ c #201818",
"% c #37373F",
"& c #8E8A9E",
"* c #242425",
"= c #02250A",
"- c #2C2830",
"; c #201C24",
": c #0A0C0B",
"> c #18181C",
", c #1D232E",
"< c #101014",
"1 c #0C0C10",
"2 c #08080C",
"3 c #020206",
"4 c #1C1E26",
"5 c #060917",
"6 c #060E0D",
"7 c #191823",
"8 c #11161E",
"9 c #000CE1",
"0 c #0000F8",
"q c #05090B",
"w c #CED2EE",
"e c #000370",
"r c #00C729",
"t c #00586C",
"y c #009E47",
"u c #6A6C7B",
"i c #1B1C20",
"p c #282830",
"a c #050807",
"s c #1F3227",
"d c #202028",
"f c #1C1C24",
"g c #181C20",
"h c #181820",
"j c #14141C",
"k c #0E1816",
"l c #101418",
"z c #47474E",
"x c #101018",
"c c #16256D",
"v c #575764",
"b c #0006F3",
"n c #131317",
"m c #1D397A",
"M c #041508",
"N c #282828",
"B c #0A1B11",
"V c #202020",
"C c #505059",
"Z c #181818",
"A c #101010",
"S c #0000FF",
"D c #DDE1FF",
/* pixels */
"DDDDDDDDDDDDDDDDDDDDDDDDDDDDDDDDDDDDDDDDDDDDDDDw",
"wwwwwwwwwwwwwwwwwwwwwwwwwwwwwwwwwwwwwwwwwwwwwwwz",
"wAAxZZZZVVVVVdddddddddddddddddVVVVVZZZZZxxAAA2Z ",
"wAxxZZZVVddddddddNNNNNNNNdddddddVVVVVZZZxxxxAAZ ",
"wxxZVVVVdddddNNNNNNNNNNNNNNNdddddVVVVVVZZxxxxAZ ",
"wxZZ&uu&&&uu#vCoooo%o%%ooooooozCv#uu&&&&&&&wxAZ ",
"wZVV @@255xhh44,,,pppp-----pppp,,,44hhx552AaxxZ ",
"wVVd @a2AAAxZhhVVddddddddddddddVVhhZxAAA2a@aZxZ ",
"wVdd a2AA<n>>iii4dddddddddfffffiih>jn<<AA2aaZxZ ",
"wdNN 2AA<n>>hiiffffffffffffffffihh>>jn<<AA2aZZZ ",
"wdNp AAxj>>hifffffffffffffffffiihh>>>jnx<AAaVZZ ",
"wNpp Axjj>hiiffffffffffffffffgghhhhh>>jnn<1aVZZ ",
"wNp- xZ>hhiifffffffffffffffffgghhhhhhh>>nn<aVVZ ",
"wp-- Z>iiiffffff4ffffffffffffgggggggghhh>Zn:dVZ ",
"w--- >iifffffff4ffff44444ffffgffffffffiiiin:fVZ ",
"w--% >ifffdffgff4ffff44444fffggggff4ffffhin:fdZ ",
"w--% i>>>>>jjjj>ghh7777ff4ggg>ggggggg>>>>nn:fdZ ",
"w-%%  33a:MMAABkklxx888h>gkkkkkBBBBBBBM:a+33*dZ ",
"w%%o     M=MMMMMMq255555B==M6M=========Ma  3*dZ ",
"w%%o@@++=XXX===X=55555558XsB5=X=sXXXXXXXB55+*NZ ",
"w%ozeeecrrtyrXyrteeeeeeetyXcetrXmttyrXtmeeeedNZ ",
"w%oz0009Oy9tOyyrt9999999mry99trt999yrt9bb000pNZ ",
"wozzSSS9Oy9tOyyOt9mtt9bb9rr9btOtb09yOmbSSSS0pNZ ",
"wozzSSS9Oy9tOyyOtmryrtbS9rr9btOtbSbyO90SSSS0pNZ ",
"wzzCSSS9OrtyOyyOtyOyrybS9yr99yrt0SbyO9SSSSS0pNZ ",
"wzC.SSS9OOOOOyyrtyOOr9909mrytry90SbyO90SSSSSpNZ ",
"wzC.0009OymXryyrtyrXtm999etyrXm9999yOmb000SSpNZ ",
"wzC.++5=rX=XyXXX==XXX,eee88=X=85555Xr=55++@@ppZ ",
"wC.v3  M==M==========B5555qM=M++@@a==M      ppZ ",
"wCvv3      aMMMMMMMMMaq++++aaa3             ppZ ",
"wCvv3 @33aaaaM666666A61155161:22a++a+++333@+ppZ ",
"wCvv+:12aaaaa:1<lll<lx<<<xxllx<<1:22:111<<A:ppZ ",
"w.vv+A<1:2:::1<<lllllxxxx8jjjjjx<<111<xn>nn1pNZ ",
"w.v#3A<11::11<<xllllllll8jjjjjjnnx<<<xxnnn<1pNZ ",
"w.v#3A<11111<<xlljjjjjjjjjjhhhjjjjnnlnxx<<1:pNZ ",
"w.v#3111111<<xljjjjjjjjjhhhhhhh>>>jnnnxx<1::pNZ ",
"wCv#@2A1111<xnjj>hhhhhhhhhhhhhhhhh>jnn<<1122pNZ ",
"wCv# a2111<xjj>hgifffffffffffffiihh>jn<A12aaNNZ ",
"wCvv @a21<xjhhgf4dddddddddddddddd;;ffhl<22@aNNZ ",
"wCvv  +5584d,ppdpppppppppppppppp----%-%pdjjaNdZ ",
"wz.vww&&&&uuvv.zoooooooooooooooooooozv#u&&waNdZ ",
"woCvvuuu&&&&&uuuu###vvvvvCCCCCzzooooo%%%%-NNdVZ ",
"w%z.w#$uuuuuuuuuuuu####vvv..CCzzo%%%%---pNNNdVZ ",
"w-oz.vv#uuuuuuuuuu####vv..CCzzzoo%%%---ppNddVZZ ",
"ZZZZZZZZZZZZZZZZZZZZZZZZZZZZZZZZZZZZZZZZZZZZZZZ ",
"                                                ",
"                                                ",
"                                                "
};
