/* XPM */
static char * mini_alevt_xpm[] = {
"15 14 8 1",
" 	c #C71BC30BC71B",
".	c #FFFFFFFFFFFF",
"X	c #000000000000",
"o	c #0000FFFF0000",
"O	c #FFFF00000000",
"+	c #0000FFFFFFFF",
"@	c #FFFFFFFF0000",
"#	c None",
"               ",
" .............X",
" .oXO++++X+++.X",
" .XXXXXXXXXXX.X",
" .XXoXoX@@@XX.X",
" .XXoXoXX@XXX.X",
" .XXoXoXX@XXX.X",
" .XXXoXXX@XXX.X",
" .XXXXXXXXXXX.X",
" .OOXooX@@X++.X",
" .............X",
"XXXXXXXXXXXXXXX",
"#### .....X####",
"##XXXXXXXXXXX##"};
